<svg width="22" height="26" viewBox="0 0 22 26" fill="none" xmlns="http://www.w3.org/2000/svg">
<g clip-path="url(#clip0_0_316)">
<path d="M7.07143 7.3125V9.75H14.9286V7.3125C14.9286 5.06797 13.1705 3.25 11 3.25C8.82946 3.25 7.07143 5.06797 7.07143 7.3125ZM3.92857 9.75V7.3125C3.92857 3.27539 7.09598 0 11 0C14.904 0 18.0714 3.27539 18.0714 7.3125V9.75H18.8571C20.5906 9.75 22 11.2074 22 13V22.75C22 24.5426 20.5906 26 18.8571 26H3.14286C1.40937 26 0 24.5426 0 22.75V13C0 11.2074 1.40937 9.75 3.14286 9.75H3.92857Z" fill="white"/>
</g>
<defs>
<clipPath id="clip0_0_316">
<rect width="22" height="26" fill="white"/>
</clipPath>
</defs>
</svg>
