<svg width="224" height="48" viewBox="0 0 224 48" fill="none" xmlns="http://www.w3.org/2000/svg">
<rect width="224" height="48" rx="24" fill="#6C63FF"/>
<path d="M58.232 31V19.08H65.992V20.76H60.12V24.344H65.352V26.024H60.12V31H58.232ZM66.9154 31V22.344H68.6434V24.088L68.4834 23.832C68.6754 23.2667 68.9847 22.8613 69.4114 22.616C69.838 22.36 70.35 22.232 70.9474 22.232H71.4754V23.88H70.7234C70.126 23.88 69.6407 24.0667 69.2674 24.44C68.9047 24.8027 68.7234 25.3253 68.7234 26.008V31H66.9154ZM76.7763 31.192C75.9123 31.192 75.1443 30.9947 74.4723 30.6C73.8109 30.1947 73.2936 29.6507 72.9203 28.968C72.5469 28.2747 72.3603 27.5013 72.3603 26.648C72.3603 25.7733 72.5469 25 72.9203 24.328C73.3043 23.656 73.8163 23.128 74.4563 22.744C75.0963 22.3493 75.8216 22.152 76.6323 22.152C77.2829 22.152 77.8643 22.264 78.3763 22.488C78.8883 22.712 79.3203 23.0213 79.6723 23.416C80.0243 23.8 80.2909 24.2427 80.4722 24.744C80.6643 25.2453 80.7603 25.7787 80.7603 26.344C80.7603 26.4827 80.7549 26.6267 80.7443 26.776C80.7336 26.9253 80.7123 27.064 80.6803 27.192H73.7843V25.752H79.6562L78.7923 26.408C78.8989 25.8853 78.8616 25.4213 78.6803 25.016C78.5096 24.6 78.2429 24.2747 77.8803 24.04C77.5283 23.7947 77.1123 23.672 76.6323 23.672C76.1523 23.672 75.7256 23.7947 75.3523 24.04C74.9789 24.2747 74.6909 24.616 74.4883 25.064C74.2856 25.5013 74.2056 26.0347 74.2483 26.664C74.1949 27.2507 74.2749 27.7627 74.4883 28.2C74.7123 28.6373 75.0216 28.9787 75.4163 29.224C75.8216 29.4693 76.2803 29.592 76.7923 29.592C77.3149 29.592 77.7576 29.4747 78.1203 29.24C78.4936 29.0053 78.7869 28.7013 79.0003 28.328L80.4722 29.048C80.3016 29.4533 80.0349 29.8213 79.6723 30.152C79.3203 30.472 78.8936 30.728 78.3923 30.92C77.9016 31.1013 77.3629 31.192 76.7763 31.192ZM86.5888 31.192C85.7248 31.192 84.9568 30.9947 84.2848 30.6C83.6234 30.1947 83.1061 29.6507 82.7328 28.968C82.3594 28.2747 82.1728 27.5013 82.1728 26.648C82.1728 25.7733 82.3594 25 82.7328 24.328C83.1168 23.656 83.6288 23.128 84.2688 22.744C84.9088 22.3493 85.6341 22.152 86.4448 22.152C87.0954 22.152 87.6768 22.264 88.1888 22.488C88.7008 22.712 89.1328 23.0213 89.4848 23.416C89.8368 23.8 90.1034 24.2427 90.2847 24.744C90.4768 25.2453 90.5728 25.7787 90.5728 26.344C90.5728 26.4827 90.5674 26.6267 90.5568 26.776C90.5461 26.9253 90.5248 27.064 90.4928 27.192H83.5968V25.752H89.4688L88.6048 26.408C88.7114 25.8853 88.6741 25.4213 88.4928 25.016C88.3221 24.6 88.0554 24.2747 87.6928 24.04C87.3408 23.7947 86.9248 23.672 86.4448 23.672C85.9648 23.672 85.5381 23.7947 85.1648 24.04C84.7914 24.2747 84.5034 24.616 84.3008 25.064C84.0981 25.5013 84.0181 26.0347 84.0608 26.664C84.0074 27.2507 84.0874 27.7627 84.3008 28.2C84.5248 28.6373 84.8341 28.9787 85.2288 29.224C85.6341 29.4693 86.0928 29.592 86.6048 29.592C87.1274 29.592 87.5701 29.4747 87.9328 29.24C88.3061 29.0053 88.5994 28.7013 88.8128 28.328L90.2847 29.048C90.1141 29.4533 89.8474 29.8213 89.4848 30.152C89.1328 30.472 88.7061 30.728 88.2048 30.92C87.7141 31.1013 87.1754 31.192 86.5888 31.192ZM92.5133 31V19.08H96.8493C97.6493 19.08 98.3533 19.2293 98.9613 19.528C99.5799 19.816 100.06 20.2427 100.401 20.808C100.743 21.3627 100.913 22.0293 100.913 22.808C100.913 23.576 100.737 24.2373 100.385 24.792C100.044 25.3467 99.5693 25.7733 98.9613 26.072C98.3533 26.3707 97.6493 26.52 96.8493 26.52H94.4013V31H92.5133ZM94.4013 24.84H96.8973C97.3239 24.84 97.6973 24.7547 98.0173 24.584C98.3373 24.4133 98.5879 24.1787 98.7693 23.88C98.9506 23.5707 99.0413 23.208 99.0413 22.792C99.0413 22.376 98.9506 22.0187 98.7693 21.72C98.5879 21.4107 98.3373 21.176 98.0173 21.016C97.6973 20.8453 97.3239 20.76 96.8973 20.76H94.4013V24.84ZM102.681 31V22.344H104.409V24.088L104.249 23.832C104.441 23.2667 104.75 22.8613 105.177 22.616C105.604 22.36 106.116 22.232 106.713 22.232H107.241V23.88H106.489C105.892 23.88 105.406 24.0667 105.033 24.44C104.67 24.8027 104.489 25.3253 104.489 26.008V31H102.681ZM108.478 31V22.344H110.286V31H108.478ZM108.478 21.16V19.08H110.286V21.16H108.478ZM114.912 31L111.52 22.344H113.488L116.096 29.4H115.376L117.984 22.344H119.968L116.56 31H114.912ZM123.476 31.192C122.889 31.192 122.372 31.0907 121.924 30.888C121.487 30.6747 121.145 30.3867 120.9 30.024C120.655 29.6507 120.532 29.2133 120.532 28.712C120.532 28.2427 120.633 27.8213 120.836 27.448C121.049 27.0747 121.375 26.76 121.812 26.504C122.249 26.248 122.799 26.0667 123.46 25.96L126.468 25.464V26.888L123.812 27.352C123.332 27.4373 122.98 27.592 122.756 27.816C122.532 28.0293 122.42 28.3067 122.42 28.648C122.42 28.9787 122.543 29.2507 122.788 29.464C123.044 29.6667 123.369 29.768 123.764 29.768C124.255 29.768 124.681 29.6613 125.044 29.448C125.417 29.2347 125.705 28.952 125.908 28.6C126.111 28.2373 126.212 27.8373 126.212 27.4V25.176C126.212 24.7493 126.052 24.4027 125.732 24.136C125.423 23.8587 125.007 23.72 124.484 23.72C124.004 23.72 123.583 23.848 123.22 24.104C122.868 24.3493 122.607 24.6693 122.436 25.064L120.932 24.312C121.092 23.8853 121.353 23.512 121.716 23.192C122.079 22.8613 122.5 22.6053 122.98 22.424C123.471 22.2427 123.988 22.152 124.532 22.152C125.215 22.152 125.817 22.28 126.34 22.536C126.873 22.792 127.284 23.1493 127.572 23.608C127.871 24.056 128.02 24.5787 128.02 25.176V31H126.292V29.432L126.66 29.48C126.457 29.832 126.196 30.136 125.876 30.392C125.567 30.648 125.209 30.8453 124.804 30.984C124.409 31.1227 123.967 31.192 123.476 31.192ZM134.246 31.192C133.382 31.192 132.614 30.9947 131.942 30.6C131.281 30.1947 130.753 29.6507 130.358 28.968C129.974 28.2853 129.782 27.512 129.782 26.648C129.782 25.7947 129.974 25.0267 130.358 24.344C130.742 23.6613 131.27 23.128 131.942 22.744C132.614 22.3493 133.382 22.152 134.246 22.152C134.833 22.152 135.382 22.2587 135.894 22.472C136.406 22.6747 136.849 22.9573 137.222 23.32C137.606 23.6827 137.889 24.104 138.07 24.584L136.486 25.32C136.305 24.872 136.011 24.5147 135.606 24.248C135.211 23.9707 134.758 23.832 134.246 23.832C133.755 23.832 133.313 23.9547 132.918 24.2C132.534 24.4347 132.23 24.7707 132.006 25.208C131.782 25.6347 131.67 26.12 131.67 26.664C131.67 27.208 131.782 27.6987 132.006 28.136C132.23 28.5627 132.534 28.8987 132.918 29.144C133.313 29.3893 133.755 29.512 134.246 29.512C134.769 29.512 135.222 29.3787 135.606 29.112C136.001 28.8347 136.294 28.4667 136.486 28.008L138.07 28.76C137.899 29.2187 137.622 29.6347 137.238 30.008C136.865 30.3707 136.422 30.6587 135.91 30.872C135.398 31.0853 134.843 31.192 134.246 31.192ZM140.605 34.536C140.392 34.536 140.179 34.5147 139.965 34.472C139.763 34.44 139.576 34.3867 139.405 34.312V32.76C139.533 32.792 139.688 32.8187 139.869 32.84C140.051 32.872 140.227 32.888 140.397 32.888C140.899 32.888 141.267 32.776 141.501 32.552C141.747 32.3387 141.965 32.0027 142.157 31.544L142.733 30.232L142.701 31.752L138.957 22.344H140.893L143.661 29.56H143.005L145.757 22.344H147.709L143.885 31.944C143.683 32.456 143.427 32.904 143.117 33.288C142.819 33.6827 142.461 33.9867 142.045 34.2C141.64 34.424 141.16 34.536 140.605 34.536ZM149.123 31V19.08H153.459C154.259 19.08 154.963 19.2293 155.571 19.528C156.189 19.816 156.669 20.2427 157.011 20.808C157.352 21.3627 157.523 22.0293 157.523 22.808C157.523 23.576 157.347 24.2373 156.995 24.792C156.653 25.3467 156.179 25.7733 155.571 26.072C154.963 26.3707 154.259 26.52 153.459 26.52H151.011V31H149.123ZM151.011 24.84H153.507C153.933 24.84 154.307 24.7547 154.627 24.584C154.947 24.4133 155.197 24.1787 155.379 23.88C155.56 23.5707 155.651 23.208 155.651 22.792C155.651 22.376 155.56 22.0187 155.379 21.72C155.197 21.4107 154.947 21.176 154.627 21.016C154.307 20.8453 153.933 20.76 153.507 20.76H151.011V24.84ZM163.154 31.192C162.322 31.192 161.559 30.9947 160.866 30.6C160.183 30.2053 159.639 29.6667 159.234 28.984C158.829 28.3013 158.626 27.528 158.626 26.664C158.626 25.7893 158.829 25.016 159.234 24.344C159.639 23.6613 160.183 23.128 160.866 22.744C161.549 22.3493 162.311 22.152 163.154 22.152C164.007 22.152 164.77 22.3493 165.442 22.744C166.125 23.128 166.663 23.6613 167.058 24.344C167.463 25.016 167.666 25.7893 167.666 26.664C167.666 27.5387 167.463 28.3173 167.058 29C166.653 29.6827 166.109 30.2213 165.426 30.616C164.743 31 163.986 31.192 163.154 31.192ZM163.154 29.512C163.666 29.512 164.119 29.3893 164.514 29.144C164.909 28.8987 165.218 28.5627 165.442 28.136C165.677 27.6987 165.794 27.208 165.794 26.664C165.794 26.12 165.677 25.6347 165.442 25.208C165.218 24.7813 164.909 24.4453 164.514 24.2C164.119 23.9547 163.666 23.832 163.154 23.832C162.653 23.832 162.199 23.9547 161.794 24.2C161.399 24.4453 161.085 24.7813 160.85 25.208C160.626 25.6347 160.514 26.12 160.514 26.664C160.514 27.208 160.626 27.6987 160.85 28.136C161.085 28.5627 161.399 28.8987 161.794 29.144C162.199 29.3893 162.653 29.512 163.154 29.512ZM169.431 31V18.888H171.239V31H169.431ZM173.353 31V22.344H175.161V31H173.353ZM173.353 21.16V19.08H175.161V21.16H173.353ZM181.387 31.192C180.523 31.192 179.755 30.9947 179.083 30.6C178.421 30.1947 177.893 29.6507 177.499 28.968C177.115 28.2853 176.923 27.512 176.923 26.648C176.923 25.7947 177.115 25.0267 177.499 24.344C177.883 23.6613 178.411 23.128 179.083 22.744C179.755 22.3493 180.523 22.152 181.387 22.152C181.973 22.152 182.523 22.2587 183.035 22.472C183.547 22.6747 183.989 22.9573 184.363 23.32C184.747 23.6827 185.029 24.104 185.211 24.584L183.627 25.32C183.445 24.872 183.152 24.5147 182.747 24.248C182.352 23.9707 181.899 23.832 181.387 23.832C180.896 23.832 180.453 23.9547 180.059 24.2C179.675 24.4347 179.371 24.7707 179.147 25.208C178.923 25.6347 178.811 26.12 178.811 26.664C178.811 27.208 178.923 27.6987 179.147 28.136C179.371 28.5627 179.675 28.8987 180.059 29.144C180.453 29.3893 180.896 29.512 181.387 29.512C181.909 29.512 182.363 29.3787 182.747 29.112C183.141 28.8347 183.435 28.4667 183.627 28.008L185.211 28.76C185.04 29.2187 184.763 29.6347 184.379 30.008C184.005 30.3707 183.563 30.6587 183.051 30.872C182.539 31.0853 181.984 31.192 181.387 31.192ZM187.746 34.536C187.533 34.536 187.319 34.5147 187.106 34.472C186.903 34.44 186.717 34.3867 186.546 34.312V32.76C186.674 32.792 186.829 32.8187 187.01 32.84C187.191 32.872 187.367 32.888 187.538 32.888C188.039 32.888 188.407 32.776 188.642 32.552C188.887 32.3387 189.106 32.0027 189.298 31.544L189.874 30.232L189.842 31.752L186.098 22.344H188.034L190.802 29.56H190.146L192.898 22.344H194.85L191.026 31.944C190.823 32.456 190.567 32.904 190.258 33.288C189.959 33.6827 189.602 33.9867 189.186 34.2C188.781 34.424 188.301 34.536 187.746 34.536Z" fill="white"/>
<path d="M20 24C20 18.4772 24.4772 14 30 14H31C36.5228 14 41 18.4772 41 24V35H30C24.4772 35 20 30.5228 20 25V24Z" fill="white"/>
<path d="M25.8555 20.4883H37.7598V22.7246H31.5098L31.5 26.9336H36.0898V29.1699H31.5V35H25.8555V20.4883Z" fill="#6C63FF"/>
</svg>
